…
single.etf

## # A tibble: 1,722 x 5
##    date        open  high   low close
##    <date>     <dbl> <dbl> <dbl> <dbl>
##  1 2014-10-24  31.8  31.8  31.5  31.8
##  2 2014-10-25  31.8  31.8  31.8  31.8
##  3 2014-10-26  31.8  31.8  31.8  31.8
##  4 2014-10-27  31.8  32.0  31.5  31.6
##  5 2014-10-28  31.7  31.9  31.7  31.9
##  6 2014-10-29  31.9  32.2  31.8  32.2
##  7 2014-10-30  32.0  32.4  31.9  32.4
##  8 2014-10-31  32.6  33.2  32.6  33.0
##  9 2014-11-01  33.2  33.2  33.2  33.2
## 10 2014-11-02  33.2  33.2  33.2  33.2
## # … with 1,712 more rows
…
Great, we managed to obtain the OHLC data for each ETF. A few notes:
- We used group_nest to place all metadata into the nested column meta
- The time-series data is stored in the column price.daily

Let’s look into the column price.daily:

## # A tibble: 8,454 x 7
##    etf                         date        open  high   low close volumen
##    <chr>                       <date>     <dbl> <dbl> <dbl> <dbl>   <dbl>
##  1 Amundi MSCI World UCITS ETF 2018-04-18  241.  247.  240.  244.       0
##  2 Amundi MSCI World UCITS ETF 2018-04-19  244.  246.  243.  244.       0
##  3 Amundi MSCI World UCITS ETF 2018-04-20  244.  247.  243.  244.       0
##  4 Amundi MSCI World UCITS ETF 2018-04-21  243.  244.  243.  244.       0
##  5 Amundi MSCI World UCITS ETF 2018-04-22  244.  244.  244.  244.       0
##  6 Amundi MSCI World UCITS ETF 2018-04-23  244.  247.  244.  244.      80
##  7 Amundi MSCI World UCITS ETF 2018-04-24  245.  248.  241.  243.    1730
##  8 Amundi MSCI World UCITS ETF 2018-04-25  243.  244.  241.  242.      20
##  9 Amundi MSCI World UCITS ETF 2018-04-26  242.  248.  242.  245.       2
## 10 Amundi MSCI World UCITS ETF 2018-04-27  244.  249.  244.  246.      34
## # … with 8,444 more rows
…
